$(document).bind('keyup', function(e) {
    console.log(e.which);
    if (e.which == 37) {
        if $('#linkleft') {
            console.log('linkleft exists');
        }
    } else if (e.which == 39) {
        
    }
});
